{
  "index": {
    "english": {
      "title" :"Let me introduce myself",
      "skillsTitle":"Professional skillset",
      "description": [ "I am a skilled software engineer with a passion for innovative solutions.",
        "I enjoy mentoring aspiring engineers."  ,
        "With years of experience, I specialize in full-stack development,",
        "including front-end frameworks like Vue.js, as well as back-end technologies such as Flask and Node.js.",
        "I also possess expertise in blockchain development,",
        "particularly in Solidity, the programming language for Ethereum smart contracts. "
        ]
    },
    "french": {
      "title" :"Ma présentation",
      "skillsTitle":"Compétences",
      "description": ["Je suis un ingénieur logiciel avec une passion pour les solutions innovantes.",
        "J'aime encadrer les programmeurs en herbe.",
        "Avec le temps, je suis spécialisé dans le développement full-stack,",
        "Du côté front-end j'utilise des frameworks comme Vue.js, Pour le coté serveur Flask et Node.js sont les languages que j'utilise le plus.",
        "Je possède également une expertise en development blockchain,",
        "En Solidity, le langage de programmation pour les smart contracts Ethereum."]

    },
    "spanish": {
      "description": "Soy un programador  full stack vivo en Francia  . Passionado por la programación yo hace lo mi trabajo ."
    },
    "skills": [
      {
        "src": "skillsLogo/vuejs-logo.png",
        "toolTipTxt": "Vue JS"
      },
      {
        "src": "skillsLogo/quasar-logo.png",
        "toolTipTxt": "Quasar JS "
      },
      {
        "src": "skillsLogo/logo-vuetify.png",
        "toolTipTxt": "Vuetify JS "
      },
      {
        "src": "skillsLogo/mapbox-logo.png",
        "toolTipTxt": "MapBox JS "
      },
      {
        "src": "skillsLogo/python-logo.png",
        "toolTipTxt": "Python"
      },
      {
        "src": "skillsLogo/flask-logo.png",
        "toolTipTxt": "Flask"
      },
      {
        "src": "skillsLogo/postgresql-logo.png",
        "toolTipTxt": "PostgreSQL"
      },
      {
        "src": "skillsLogo/firebase-logo.png",
        "toolTipTxt": "Firebase"
      },
      {
        "src": "skillsLogo/logo-node-js.png",
        "toolTipTxt": "Node JS"
      },
      {
        "src": "skillsLogo/solidity-logo.png",
        "toolTipTxt": "Solidity"
      },
      {
        "src": "skillsLogo/hardhat-logo.png",
        "toolTipTxt": "Hardhat"
      }
    ]
  },
  "mainDrawer": {
    "english": {
      "btnAbout": "About",
      "btnWorks": "Works",
      "btnSkils": "Skills",
      "btnContact": "Contact"
    },
    "french": {
      "btnAbout": "A propos",
      "btnWorks": "Travaux",
      "btnSkils": "Compétences",
      "btnContact": "Contact"
    },
    "spanish": {
      "btnAbout": "Acerca",
      "btnWorks": "Trabajo hecho",
      "btnSkils": "Habilidades",
      "btnContact": "Contacto"
    }
  },
  "contact": {
    "english": {
      "formMain": "Do not hesitate to contact me, I am at your disposal for more information.",
      "nameFieldLabel": "Your name",
      "nameFieldRule": "Please type your username",
      "emailFieldLabel": "Your email",
      "emailFieldRule1": "Please type your email",
      "emailFieldRule2": "Please type a real email",
      "messageFieldLabel": "Your message",
      "messageFieldRule": "Please type your message",
      "SubmitBtnLabel": "Submit",
      "resetBtnLabel": "Reset"
    },
    "french": {
      "formMain": "N'hésitez pas à me contacter, je suis à votre disposition pour plus d'informations.",
      "nameFieldLabel": "Votre nom",
      "nameFieldRule": "Écrivez votre nom s'il vous plait",
      "emailFieldLabel": "Votre email",
      "emailFieldRule1": "Écrivez votre email s'il vous plait.",
      "emailFieldRule2": "Veuillez rentrer un email valide s'il vous plait.",
      "messageFieldLabel": "Votre message",
      "SubmitBtnLabel": "Envoyer",
      "resetBtnLabel": "Remettre a zéro"
    },
    "spanish": {
      "formMain": "No dudes en contactarme, estoy a tu disposición para más información.",
      "nameFieldLabel": "Tu nombre",
      "nameFieldRule": "Por favor escriba su nombre",
      "emailFieldLabel": "Tu correo electrónico",
      "emailFieldRule1": "Por favor escriba su correo electrónico",
      "emailFieldRule2": "Por favor escriba un real correo electrónico ",
      "messageFieldLabel": "Tu mensaje",
      "SubmitBtnLabel": "Enviar",
      "resetBtnLabel": "Reiniciar"
    }
  },
  "works": {
    "generic": {
      "english":{
        "visitBtnLabel": "Visit website",
        "closeBtnLabel": "Close"
      },
      "french": {
        "visitBtnLabel": "Visiter le site",
        "closeBtnLabel": "Fermer"
      },
      "spanish": {
        "visitBtnLabel": "visita el sitio web",
        "closeBtnLabel": "Cerar"
      }
    },
    "english": [
      {
        "title": "Ensignia",
        "descriptionMission": "Co funder and lead developer , i had build the smart contract and a part of the front  ",
        "descriptionProjet": "Ensignia is a crypto lottery each ticket is an erc20 token ",
        "tech": "Vue js, QuasarJs, Solidity , erc20 , rootstock , rBTC , hardhat , ether js   ",
        "visitBtnUrl": "https://ensignia.onrender.com",
        "imageDialog": "works/ensignia1.png",
        "imagePres": "works/ensignia1.png"
      },
      {
        "title": "BistroLead",
        "descriptionMission": "Co funder and lead developer",
        "descriptionProjet": "BistroLead is an online application for digitalise the restaurants menu with nutritional declaration computed directly by the application",
        "tech": "Vue js, QuasarJs, Python , Flask ,SqlAlchemy  , PostgreSQL",
        "visitBtnUrl": "https://bistrolead.com",
        "imageDialog": "works/bistroLead1.png",
        "imagePres": "works/bistroLead2.png"
      },
      {
        "title": "UPX word",
        "descriptionMission": "I'm the front end lead dev , i had manage a small team",
        "descriptionProjet": "UPX world is an web 3 society focus on Nft games. This website has many goals first represent the company secondly a part of the website is data mine for the upland me nft game. With this data mine you can search for cheap proprieties and analyse the statics of the market",
        "tech": "Vue js, QuasarJs,three js , chart js ",
        "visitBtnUrl": "https://upx.world/",
        "imageDialog": "works/upxWorld2.png",
        "imagePres": "works/upxWorld1.png"
      },
      {
        "title": "Ether wallet",
        "descriptionMission": "Front-end and smart contract development.",
        "descriptionProjet": "An ether online wallet, it’s a demonstration project the smart contract is deployed on the rospent network.",
        "tech": "Vue js, QuasarJs, Solidity, Hardhat",
        "visitBtnUrl": "https://ethwallet.antoinelibouban.com",
        "imageDialog": "works/eth-wallet2.png",
        "imagePres": "works/eth-wallet1.png",
        "gitLinks": [
          {
            "link": "https://gitlab.com/niktopelo/eth-wallet",
            "label": "front-end"
          },
          {
            "link": "https://ropsten.etherscan.io/address/0x463f2247656b2f788a6f39981e5d7fb8c8033ca6#code",
            "label": "smart contract"
          }
        ]
      },
      {
        "title": "Scenario Pilot",
        "descriptionMission": "Adaptation of a preexistent desktop software (in python) in javascript web application.",
        "descriptionProjet": "Software to pilot scenarios interacting with map.",
        "tech": "Vue js , QuasarJs, NodeJs",
        "visitBtnUrl": "https://navisu4d.org/scenarioPilot",
        "imageDialog": "works/scenario-pilot2.png",
        "imagePres": "works/scenario-pilot.png",
        "gitLinks": [
          {
            "link": "https://github.com/terre-virtuelle/ScenarioPilot",
            "label": "front-end"
          },
          {
            "link": "https://github.com/terre-virtuelle/Smap2NaVisu_Back",
            "label": "back-end"
          }
        ]
      },
      {
        "title": "Scenario Manager",
        "descriptionMission" : "Architecture and programming of all the project.",
        "descriptionProjet": "Web client to create an edit scenarios who represent interactive scénarios.",
        "tech": "Vue js , Vuetify , NodeJs",
        "visitBtnUrl": "https://navisu4d.org/smap2navisu",
        "imageDialog": "works/smap2navisu2.png",
        "imagePres": "works/smap2navisu.png",
        "gitLinks": [
          {
            "link": "https://github.com/terre-virtuelle/Smap2NaVisu_Vue",
            "label": "front-end"
          },
          {
            "link": "https://github.com/terre-virtuelle/Smap2NaVisu_Back",
            "label": "back-end"
          }
        ]
      },
      {
        "title": "Real Estate Observatory ",
        "descriptionMission": "Architecture of th two databases , the two Api and frontEnd (one mother client and  two plugins). I had program Apis and build the databases.",
        "descriptionProjet": "A tool for operational monitoring of the marketing of lots in these activity zones and dynamics of demand for tertiary real estate in the diffuse.",
        "tech": "Vue js , Vuetify , Mapbox , python , flask",
        "visitBtnUrl": "https://www.eegle.io/lobservatoire-du-foncier-pour-rennes-metropole/",
        "imageDialog": "works/observatoireFoncier.png",
        "imagePres": "works/observatoireFoncier2.png"
      },
      {
        "title": "Proleps ",
        "descriptionMission" : "architecture and development of front-end in team with an another programmer.",
        "descriptionProjet": "Proleps is a Vue JS plugin for a real estate portfolio management application. The role of this plugin is to help decision-making for park renovation actions.",
        "tech": "Vue js , Vuetify , Mapbox , python",
        "visitBtnUrl": "https://www.nobatek.inef4.com/proleps/",
        "imageDialog": "works/proleps3.png",
        "imagePres": "works/proleps2.jpg"
      },
      {
        "title": "Nest Terr ",
        "descriptionMission" : "Development of the front-end client.",
        "descriptionProjet": "the aim is to represent social and economic indicators in the Strasbourg region.",
        "tech": "Vue js , Vuetify , Mapbox ",
        "visitBtnUrl": "https://www.nobatek.inef4.com/references/evaluation-durabilite-urbaine-nest-terr/",
        "imageDialog": "works/nestTerr2.png",
        "imagePres": "works/nestTerr.png"
      },
      {
        "title": "Nest ",
        "descriptionMission": "recovery of the existing , refactoring and bring to an end the front end of the project.",
        "descriptionProjet": "Nest is a decision-making tool for building owners.",
        "tech": "Vue js , Vuetify , Mapbox ",
        "visitBtnUrl": "https://www.nobatek.inef4.com/nest/",
        "imageDialog": "works/nest3.png",
        "imagePres": "works/nest.jpg"
      }
    ],
    "french": [
      {
        "title": "BistroLead",
        "descriptionMission": "Co fondateur et lead developer",
        "descriptionProjet": "BistroLead une web application dont le but est de digitaliser le menu des restaurants en y incluant les valeurs nutritionnelles qui sont directement calculées par l'application ",
        "tech": "Vue js, QuasarJs, Python , Flask ,SqlAlchemy  , PostgreSQL",
        "visitBtnUrl": "https://bistrolead.com",
        "imageDialog": "works/bistroLead1.png",
        "imagePres": "works/bistroLead2.png"
      },
      {
        "title": "UPX word",
        "descriptionMission": "Front-end et gestion d'équipe",
        "descriptionProjet": "UPX world est une société web3 se concentrant sur la blockchain wax.The site  web a plusieurs buts  le premeier est de rerpresenter l'entreprise . Le second est d'étre une mine de données pour le jeux nft upland me. Ces fonctionnalitées permettent au joueurs de rechercher par example les propriétées les plus abordables sur une zone donné mais aussi d'analiser des statistiques du marché",

        "tech": "Vue js, QuasarJs,three js , chart js ",
        "visitBtnUrl": "https://upx.world/",
        "imageDialog": "works/upxWorld2.png",
        "imagePres": "works/upxWorld1.png"
      },
      {
        "title": "Ether wallet",
        "descriptionMission": "développement du front-end et du smart contract.",
        "descriptionProjet": "Un portefeuille ether en ligne, c'est un projet démonstratif le smart contract est déployer sur le réseau rospent.",
        "tech": "Vue js, QuasarJs, Solidity, Hardhat",
        "visitBtnUrl": "https://ethwallet.antoinelibouban.com",
        "imageDialog": "works/eth-wallet2.png",
        "imagePres": "works/eth-wallet1.png",
        "gitLinks": [
          {
            "link": "https://gitlab.com/niktopelo/eth-wallet",
            "label": "front-end"
          },
          {
            "link": "https://ropsten.etherscan.io/address/0x463f2247656b2f788a6f39981e5d7fb8c8033ca6#code",
            "label": "smart contract"
          }
        ]
      },
      {
        "title": "Piloteur de scénarios interactifs",
        "descriptionMission": "Adaptation d'un logiciel déjà existant en python en web application.",
        "descriptionProjet": "Client web dont le rôle est de piloter des scénarios en interaction avec une carte.",
        "tech": "Vue js , QuasarJs, NodeJs",
        "visitBtnUrl": "https://navisu4d.org/scenarioPilot",
        "imageDialog": "works/scenario-pilot2.png",
        "imagePres": "works/scenario-pilot.png",
        "gitLinks": [
          {
            "link": "https://github.com/terre-virtuelle/ScenarioPilot",
            "label": "front-end"
          },
          {
            "link": "https://github.com/terre-virtuelle/Smap2NaVisu_Back",
            "label": "back-end"
          }
        ]
      },
      {
        "title": "Editeur de scénarios",
        "descriptionMission" : "Architecture et développement du programme.",
        "descriptionProjet": "C'est une application qui permet de créer et d'éditer des scénarios qui représentent des questionnaires interactifs.",
        "tech": "Vue js , Vuetify , NodeJs",
        "visitBtnUrl": "https://navisu4d.org/smap2navisu",
        "imageDialog": "works/smap2navisu2.png",
        "imagePres": "works/smap2navisu.png",
        "gitLinks": [
          {
            "link": "https://github.com/terre-virtuelle/Smap2NaVisu_Vue",
            "label": "front-end"
          },
          {
            "link": "https://github.com/terre-virtuelle/Smap2NaVisu_Back",
            "label": "back-end"
          }
        ]
      },
      {
        "title": "Observatoire du foncier ",
        "descriptionMission": "Architecture des deux bases de données, des deux api , le client mère VueJS et ses deux plugins. Ainsi que le développement des basses de données et des back-ends.",
        "descriptionProjet": "Un outil de suivi opérationnel de la commercialisation des lots dans ce zones d'activité et dynamique de la demande pour l'immobilier tertiaire dans le diffus.",
        "tech": "Vue js , Vuetify , Mapbox , python , flask",
        "visitBtnUrl": "https://www.eegle.io/lobservatoire-du-foncier-pour-rennes-metropole/",
        "imageDialog": "works/observatoireFoncier.png",
        "imagePres": "works/observatoireFoncier2.png"
      },
      {
        "title": "Proleps",
        "descriptionMission" : "architecture et développement du front-end avec un autre programmeur.",
        "descriptionProjet": "Proleps est un plugin VueJS d’une application de gestion de parc immobilier. Le rôle de ce plugin est d’aider à la prise de décisions pour les actions de rénovation du parc.",
        "tech": "Vue js , Vuetify , Mapbox , python",
        "visitBtnUrl": "https://www.nobatek.inef4.com/proleps/",
        "imageDialog": "works/proleps3.png",
        "imagePres": "works/proleps2.jpg"
      },
      {
        "title": "Nest Terr ",
        "descriptionMission" : "Développement du front-end.",
        "descriptionProjet": "Le but est de représenter des indicateurs sociaux économiques dans la région de Strasbourg.",
        "tech": "Vue js , Vuetify , Mapbox ",
        "visitBtnUrl": "https://www.nobatek.inef4.com/references/evaluation-durabilite-urbaine-nest-terr/",
        "imageDialog": "works/nestTerr2.png",
        "imagePres": "works/nestTerr.png"
      },
      {
        "title": "Nest ",
        "descriptionMission": "Reprise de l'existant, refactoring et mener à son terme le projet.",
        "descriptionProjet": "Nest est un outil de prise de décision destinée aux maîtres d'ouvrages.",
        "tech": "Vue js , Vuetify , Mapbox ",
        "visitBtnUrl": "https://www.nobatek.inef4.com/nest/",
        "imageDialog": "works/nest3.png",
        "imagePres": "works/nest2.png"
      }
    ],
    "spanish": [
      {
        "title": "Piloto de escenario ",
        "descriptionProjet": "El propósito de este software es pilotear escenarios en interacción con mapas.",
        "tech": "Vue js , QuasarJs",
        "visitBtnUrl": "https://www.terrevirtuelle.org/",
        "imageDialog": "works/scenario-pilot2.png",
        "imagePres": "works/scenario-pilot.png",
        "gitLinks": [
          {
            "link": "https://github.com/terre-virtuelle/ScenarioPilot",
            "label": "front-end"
          },
          {
            "link": "https://github.com/terre-virtuelle/Smap2NaVisu_Back",
            "label": "back-end"
          }
        ]
      },
      {
        "title": "Editor de escenarios ",
        "descriptionProjet": "Es una aplicación que permite crear y editar escenarios que representan cuestionarios interactivos ",
        "tech": "Vue js , Vuetify , NodeJs",
        "visitBtnUrl": "https://www.terrevirtuelle.org/",
        "imageDialog": "works/smap2navisu2.png",
        "imagePres": "works/smap2navisu.png",
        "gitLinks": [
          {
            "link": "https://github.com/terre-virtuelle/Smap2NaVisu_Vue",
            "label": "front-end"
          },
          {
            "link": "https://github.com/terre-virtuelle/Smap2NaVisu_Back",
            "label": "back-end"
          }
        ]
      },
      {
        "title": "Observatoire du foncier ",
        "descriptionProjet": "Una herramienta para el seguimiento operativo de la comercialización de solares en estas zonas de actividad y dinámica de la demanda de inmuebles terciarios en el difuso. ",
        "tech": "Vue js , Vuetify , Mapbox , python , flask",
        "visitBtnUrl": "https://www.eegle.io/nos-activites/developpement-logiciel-2/foncier-3/",
        "imageDialog": "works/observatoireFoncier.png",
        "imagePres": "works/observatoireFoncier2.png"
      },
      {
        "title": "Proleps ",
        "descriptionProjet": "Proleps es un plugin de una aplicación de gestión de carteras inmobiliarias. La función de este plugin es ayudar a la toma de decisiones para las acciones de renovación del parque.",
        "tech": "Vue js , Vuetify , Mapbox , python",
        "visitBtnUrl": "https://www.eegle.io/proleps-2/",
        "imageDialog": "works/proleps3.png",
        "imagePres": "works/proleps2.jpg"
      },
      {
        "title": "Nest Terr ",
        "descriptionProjet": "El objetivo es representar indicadores sociales y económicos en la región de Estrasburgo.",
        "tech": "Vue js , Vuetify , Mapbox ",
        "visitBtnUrl": "https://www.nobatek.inef4.com/references/evaluation-durabilite-urbaine-nest-terr/",
        "imageDialog": "works/nestTerr2.png",
        "imagePres": "works/nestTerr.png"
      },
      {
        "title": "Nest ",
        "descriptionProjet": "Nest es una herramienta de toma de decisiones para constructores de edificios ",
        "tech": "Vue js , Vuetify , Mapbox ",
        "visitBtnUrl": "https://www.nobatek.inef4.com/nest/",
        "imageDialog": "works/nest3.png",
        "imagePres": "works/nest.jpg"
      },
      {
        "title": "The liquorist",
        "descriptionProjet": "E-commerce sito web por una marca de líquido de cigaretta electronica",
        "tech": " laravel , vue js  ",
        "visitBtnUrl": "https://theliquorist.net/",
        "imageDialog": "works/the-liquorist2.png",
        "imagePres": "works/the-liquorist.png"
      },
      {
        "title": "Social media booster",
        "descriptionProjet": "Es una web application to simplifiar la gestion de social media y action automatico",
        "tech": "Vue JS , Quasar JS , Python , Flask ",
        "visitBtnUrl": "https://smb.antoinelibouban.com",
        "imageDialog": "works/SocialMediaBooster.png",
        "imagePres": "works/SocialMediaBooster.png"
      },
      {
        "title": "Le Mont Liban Restaurante",
        "descriptionProjet": "a restaurante  website , my primero creation",
        "tech": "bootstrap",
        "visitBtnUrl": "https://restaurantlemontliban.fr/",
        "imageDialog": "works/leMontLibanScreenshoot.png",
        "imagePres": "works/le-mont-liban.png"
      }
    ]
  }
}
